Case study • MSMICA
…
library(tidyr)
library(limma)
library(splines)
library(MSMICA)

# this is the working directory for the case study
setwd('/Users/james/Desktop/Emory University - Ph.D./PhD dissertation/MSMICA/Publication/Abstract/MSMICA_package/MSMICA/vignettes')

# import feature table data
## hilic positive data
data(feature_table_exp_hilicpos)
print(feature_table_exp_hilicpos)

## # A tibble: 11,267 × 44
##       mz  time NM5_GS_0_1 NM5_GS_0_3 NM5_GS_0_5 TM5_GS_0_1 TM5_GS_0_3 TM5_GS_0_5
##    <dbl> <dbl>      <dbl>      <dbl>      <dbl>      <dbl>      <dbl>      <dbl>
##  1  85.0  49.4  127294848   93929747   66033558  159310776   99288246   82335881
##  2  85.0  83.4    9282517   14636989   12921267    8682974   10271317    7132031
##  3  85.1 109.    13329008   15703815    8642594    8449978    8644413    3355450
##  4  85.2  30.8          0   26889920   32196356   25253361   47516277   54826651
##  5  85.3  31.5          0    8566404   14599669    9787948   14132846   23874217
##  6  85.4  30.2          0   13508765   16721105   61654938    9957638    3201424
##  7  85.4  33.8   15066696          0          0   11540798   20251857   31230557
##  8  85.6 156.     6775208    4078654          0    2803849     107620          0
##  9  85.6  76.0          0          0          0    4678248    3290240    1366488
## 10  85.8 106.           0   69397733          0          0          0          0
## # ℹ 11,257 more rows
## # ℹ 36 more variables: NM11_GS_0_1 <dbl>, NM11_GS_0_3 <dbl>, NM11_GS_0_5 <dbl>,
## #   TM11_GS_0_1 <dbl>, TM11_GS_0_3 <dbl>, TM11_GS_0_5 <dbl>, NM6_GS_0_1 <dbl>,
## #   NM6_GS_0_3 <dbl>, NM6_GS_0_5 <dbl>, TM4_GS_0_1 <dbl>, TM4_GS_0_3 <dbl>,
## #   TM4_GS_0_5 <dbl>, NM4_GS_0_1 <dbl>, NM4_GS_0_3 <dbl>, NM4_GS_0_5 <dbl>,
## #   TM6_GS_0_1 <dbl>, TM6_GS_0_3 <dbl>, TM6_GS_0_5 <dbl>, NM7_GS_0_1 <dbl>,
## #   NM7_GS_0_3 <dbl>, NM7_GS_0_5 <dbl>, NM9_GS_0_1 <dbl>, NM9_GS_0_3 <dbl>, …

## c18 negative data
data(feature_table_exp_c18neg)
print(feature_table_exp_c18neg)

## # A tibble: 8,456 × 44
##       mz  time NM5_GS_0_2 NM5_GS_0_4 NM5_GS_0_6 TM5_GS_0_2 TM5_GS_0_4 TM5_GS_0_6
##    <dbl> <dbl>      <dbl>      <dbl>      <dbl>      <dbl>      <dbl>      <dbl>
##  1  85.0 123.     3451142   17675474    4332024    8899759   12204896   12666665
##  2  85.0 288.     2267915    3117932    3828736    4224009    4200063    3788690
##  3  85.0 293.     3691321    2391226    3155868    2361909    4033037    2426635
##  4  85.0  24.9   38858050   43782168   32818312   36913236   36235779   28511185
##  5  85.0  95.0    3104800    2580525    3767773    2646283    2663336    1084595
##  6  85.4 236.     6096726    4051104    1465424    5114500     971445    2515400
##  7  85.5  22.0          0          0          0          0          0          0
##  8  85.5 210.           0    2349999    5895828    1703156    3593730    8463200
##  9  85.6 211.           0     258962    2349208          0    1626943    3316184
## 10  85.7 217.      747185    3036484    5062762    4169043    3809372    9121575
## # ℹ 8,446 more rows
## # ℹ 36 more variables: NM11_GS_0_2 <dbl>, NM11_GS_0_4 <dbl>, NM11_GS_0_6 <dbl>,
## #   TM11_GS_0_2 <dbl>, TM11_GS_0_4 <dbl>, TM11_GS_0_6 <dbl>, NM6_GS_0_2 <dbl>,
## #   NM6_GS_0_4 <dbl>, NM6_GS_0_6 <dbl>, TM4_GS_0_2 <dbl>, TM4_GS_0_4 <dbl>,
## #   TM4_GS_0_6 <dbl>, NM4_GS_0_2 <dbl>, NM4_GS_0_4 <dbl>, NM4_GS_0_6 <dbl>,
## #   TM6_GS_0_2 <dbl>, TM6_GS_0_4 <dbl>, TM6_GS_0_6 <dbl>, NM7_GS_0_2 <dbl>,
## #   NM7_GS_0_4 <dbl>, NM7_GS_0_6 <dbl>, NM9_GS_0_2 <dbl>, NM9_GS_0_4 <dbl>, …
…
# Compute the median for each set of triplicates
df_median <- df_long %>%
  group_by(mz, time, sample_base) %>%
  summarize(median_value = median(value), .groups = "drop")

# Pivot back to the wide format
feature_table_exp_hilicpos <- df_median %>%
  pivot_wider(names_from = sample_base, values_from = median_value)

# View the summarized data frame
print(feature_table_exp_hilicpos)

## # A tibble: 11,267 × 16
##       mz  time NM11_GS_0 NM4_GS_0 NM5_GS_0 NM6_GS_0 NM7_GS_0 NM8_GS_0 NM9_GS_0
##    <dbl> <dbl>     <dbl>    <dbl>    <dbl>    <dbl>    <dbl>    <dbl>    <dbl>
##  1  85.0  49.4  91637758 53374857 93929747 47592345 49580672 65890518 24709252
##  2  85.0  83.4  20848423 11877054 12921267 17645801  7985920 17303431 10586069
##  3  85.1 109.   12062332  3298088 13329008  9183408  1647494 15424423 10908045
##  4  85.2  30.8  43116622 24855153       NA  8517991 34448219 29816051 24415023
##  5  85.3  31.5  13212572 10524120       NA       NA 16114654       NA       NA
##  6  85.4  30.2        NA       NA       NA  5593932  9671769       NA 11869357
##  7  85.4  33.8        NA 11456826       NA       NA  8251705       NA       NA
##  8  85.6 156.         NA       NA       NA  2907723       NA       NA       NA
##  9  85.6  76.0        NA       NA       NA       NA       NA  3804028       NA
## 10  85.8 106.         NA       NA       NA       NA       NA       NA       NA
## # ℹ 11,257 more rows
## # ℹ 7 more variables: TM11_GS_0 <dbl>, TM4_GS_0 <dbl>, TM5_GS_0 <dbl>,
## #   TM6_GS_0 <dbl>, TM7_GS_0 <dbl>, TM8_GS_0 <dbl>, TM9_GS_0 <dbl>
…
# Compute the median for each set of triplicates
df_median <- df_long %>%
  group_by(mz, time, sample_base) %>%
  summarize(median_value = median(value), .groups = "drop")

# Pivot back to the wide format
feature_table_exp_c18neg <- df_median %>%
  pivot_wider(names_from = sample_base, values_from = median_value)

# View the summarized data frame
print(feature_table_exp_c18neg)

## # A tibble: 8,456 × 16
##       mz  time NM11_GS_0 NM4_GS_0 NM5_GS_0 NM6_GS_0 NM7_GS_0 NM8_GS_0 NM9_GS_0
##    <dbl> <dbl>     <dbl>    <dbl>    <dbl>    <dbl>    <dbl>    <dbl>    <dbl>
##  1  85.0 123.    7722094 10229284  4332024  5469528  8399260  2175857  1929214
##  2  85.0 288.    4407084  3951785  3117932  3267173  4019103  3336862  3128299
##  3  85.0 293.    2607157  3002005  3155868  1907645  1002345   825507  2679529
##  4  85.0  24.9  64373076 39894574 38858050 35446680 35724755 34192423 33235053
##  5  85.0  95.0   2999487  2543380  3104800  1624592  2369531  4524972  2823455
##  6  85.4 236.    4240866  4900397  4051104  3749169  2528974  2431985  4520111
##  7  85.5  22.0        NA       NA       NA       NA       NA       NA       NA
##  8  85.5 210.    3676008       NA       NA  1146822  4697878  6359702  3184766
##  9  85.6 211.    2509843       NA       NA       NA       NA  2801030       NA
## 10  85.7 217.    4761129  3545481  3036484  1748788  3907803  7352392  3096899
## # ℹ 8,446 more rows
## # ℹ 7 more variables: TM11_GS_0 <dbl>, TM4_GS_0 <dbl>, TM5_GS_0 <dbl>,
## #   TM6_GS_0 <dbl>, TM7_GS_0 <dbl>, TM8_GS_0 <dbl>, TM9_GS_0 <dbl>
…
## Rows: 2926 Columns: 73

## ── Column specification ────────────────────────────────────────────────────────
## Delimiter: ","
## chr (19): mz_time, Adduct, Name, identification_type, identification_method,...
## dbl (53): mz, time, Probability, metabolite_within_feature_number, time_pred...
## lgl  (1): isomer_exist
## 
## ℹ Use `spec()` to retrieve the full column specification for this data.
## ℹ Specify the column types or set `show_col_types = FALSE` to quiet this message.

print(hilicpos_MSMICA_identified_metabolites)

## # A tibble: 2,926 × 73
##       mz  time mz_time    Adduct Name  identification_type identification_method
##    <dbl> <dbl> <chr>      <chr>  <chr> <chr>               <chr>                
##  1 348.    284 348.0703_… M+H    AMP   Schymanski level 3a mz matching; retenti…
##  2 385.     90 385.1282_… M+H    S-Ad… Schymanski level 3a mz matching; retenti…
##  3 148.     78 148.0604_… M+H    Glut… Schymanski level 3a mz matching; retenti…
##  4 181.     37 181.072_37 M+H    D-Gl… Schymanski level 3a mz matching; retenti…
##  5  90.1    70 90.055_70  M+H    Alan… Schymanski level 3a mz matching; retenti…
##  6 608.    120 608.0855_… M+H    Urid… Schymanski level 3b mz matching; retenti…
##  7 147.    110 147.1128_… M+H    Lysi… Schymanski level 3a mz matching; retenti…
##  8 134.     83 134.0448_… M+H    Aspa… Schymanski level 3a mz matching; retenti…
##  9 308.    225 308.0909_… M+H    Glut… Schymanski level 3a mz matching; retenti…
## 10 324.     34 324.059_34 M+H    CMP   Schymanski level 3a mz matching; retenti…
## # ℹ 2,916 more rows
## # ℹ 66 more variables: Probability <dbl>,
## #   metabolite_within_feature_number <dbl>, isomer_exist <lgl>,
## #   time_predicted <dbl>, time_difference <dbl>, mean_intensity <dbl>,
## #   PubChem_compound_id <dbl>, HMDB_ID <chr>, KEGG_ID <chr>,
## #   LIPID_MAPS_ID <chr>, ChEBI_ID <dbl>, BioCyc_ID <chr>, DrugBank_ID <chr>,
## #   Mono_mass <dbl>, Formula <chr>, Charge <dbl>, SMILES <chr>, …
…
## Rows: 2439 Columns: 73
## ── Column specification ────────────────────────────────────────────────────────
## Delimiter: ","
## chr (19): mz_time, Adduct, Name, identification_type, identification_method,...
## dbl (53): mz, time, Probability, metabolite_within_feature_number, time_pred...
## lgl  (1): isomer_exist
## 
## ℹ Use `spec()` to retrieve the full column specification for this data.
## ℹ Specify the column types or set `show_col_types = FALSE` to quiet this message.

print(c18neg_MSMICA_identified_metabolites)

## # A tibble: 2,439 × 73
##       mz  time mz_time    Adduct Name  identification_type identification_method
##    <dbl> <dbl> <chr>      <chr>  <chr> <chr>               <chr>                
##  1 662.     20 662.1014_… M-H    NAD   Schymanski level 3a mz matching; retenti…
##  2 664.     20 664.1174_… M-H    NADH  Schymanski level 3a mz matching; retenti…
##  3 742.     20 742.0704_… M-H    NADP  Schymanski level 3a mz matching; retenti…
##  4 426.     22 426.0222_… M-H    ADP   Schymanski level 3a mz matching; retenti…
##  5 766.     20 766.1058_… M-H    Coen… Schymanski level 3a mz matching; retenti…
##  6 784.     20 784.1525_… M-H    FAD   Schymanski level 3a mz matching; retenti…
##  7 346.     21 346.0557_… M-H    AMP   Schymanski level 3a mz matching; retenti…
##  8 383.     27 383.1142_… M-H    S-Ad… Schymanski level 3a mz matching; retenti…
##  9  87.0    24 87.0087_24 M-H    Pyru… Schymanski level 3a mz matching; retenti…
## 10 808.     21 808.1197_… M-H    Acet… Schymanski level 3a mz matching; retenti…
## # ℹ 2,429 more rows
## # ℹ 66 more variables: Probability <dbl>,
## #   metabolite_within_feature_number <dbl>, isomer_exist <lgl>,
## #   time_predicted <dbl>, time_difference <dbl>, mean_intensity <dbl>,
## #   PubChem_compound_id <dbl>, HMDB_ID <chr>, KEGG_ID <chr>,
## #   LIPID_MAPS_ID <chr>, ChEBI_ID <dbl>, BioCyc_ID <chr>, DrugBank_ID <chr>,
## #   Mono_mass <dbl>, Formula <chr>, Charge <dbl>, SMILES <chr>, …
…
# Apply the imputation function to each row
feature_table_exp_hilicpos_imputed <- t(apply(feature_table_exp_hilicpos, 1, impute_missing_values))

# Convert the result back to a data frame and ensure the column names are preserved
feature_table_exp_hilicpos_imputed <- as.data.frame(feature_table_exp_hilicpos_imputed, stringsAsFactors = FALSE)
colnames(feature_table_exp_hilicpos_imputed) <- colnames(feature_table_exp_hilicpos_imputed)
feature_table_exp_hilicpos_imputed = tibble(feature_table_exp_hilicpos_imputed)

# Round mz to 4 decimal places and time to 1 decimal place. This is because MSMICA already rounded mz to 4 decimal places and time to 0 decimal place. We need to match the feature table with MSMICA results later.
feature_table_exp_hilicpos_imputed$mz = round(feature_table_exp_hilicpos_imputed$mz, 4)
feature_table_exp_hilicpos_imputed$time = round(feature_table_exp_hilicpos_imputed$time, 0)

print(feature_table_exp_hilicpos_imputed)

## # A tibble: 2,805 × 16
##       mz  time NM11_GS_0  NM4_GS_0  NM5_GS_0 NM6_GS_0 NM7_GS_0 NM8_GS_0 NM9_GS_0
##    <dbl> <dbl>     <dbl>     <dbl>     <dbl>    <dbl>    <dbl>    <dbl>    <dbl>
##  1  85.0    49  91637758  53374857  93929747   4.76e7   4.96e7   6.59e7   2.47e7
##  2  85.0    83  20848423  11877054  12921267   1.76e7   7.99e6   1.73e7   1.06e7
##  3  85.1   109  12062332   3298088  13329008   9.18e6   1.65e6   1.54e7   1.09e7
##  4  86.1    86   3080601  16802982  85563348   1.54e7   1.29e7   3.66e6   1.45e7
##  5  86.1    48 418067624 348550236 406656114   3.78e8   2.81e8   5.31e8   3.59e8
##  6  86.9    63  37894712  34362086   7208751   3.22e7   9.35e6   4.08e7   2.32e7
##  7  87.0    32 332545005 173478917 362784044   2.26e8   2.85e8   2.58e8   4.09e8
##  8  87.0   293   6425940   6048306   5233237   4.99e6   3.53e6   3.10e6   1.34e6
##  9  87.1    86  16335772  15361607  20702962   2.29e7   7.86e6   2.08e7   9.85e6
## 10  87.1    32 131934631  74985219 146405595   9.36e7   1.21e8   1.11e8   1.83e8
## # ℹ 2,795 more rows
## # ℹ 7 more variables: TM11_GS_0 <dbl>, TM4_GS_0 <dbl>, TM5_GS_0 <dbl>,
## #   TM6_GS_0 <dbl>, TM7_GS_0 <dbl>, TM8_GS_0 <dbl>, TM9_GS_0 <dbl>
…
# Apply the imputation function to each row
feature_table_exp_c18neg_imputed <- t(apply(feature_table_exp_c18neg, 1, impute_missing_values))

# Convert the result back to a data frame and ensure the column names are preserved
feature_table_exp_c18neg_imputed <- as.data.frame(feature_table_exp_c18neg_imputed, stringsAsFactors = FALSE)
colnames(feature_table_exp_c18neg_imputed) <- colnames(feature_table_exp_c18neg_imputed)
feature_table_exp_c18neg_imputed = tibble(feature_table_exp_c18neg_imputed)

# Round mz to 4 decimal places and time to 1 decimal place. This is because MSMICA already rounded mz to 4 decimal places and time to 0 decimal place. We need to match the feature table with MSMICA results later.
feature_table_exp_c18neg_imputed$mz = round(feature_table_exp_c18neg_imputed$mz, 4)
feature_table_exp_c18neg_imputed$time = round(feature_table_exp_c18neg_imputed$time, 0)

print(feature_table_exp_c18neg_imputed)

## # A tibble: 4,215 × 16
##       mz  time NM11_GS_0 NM4_GS_0 NM5_GS_0 NM6_GS_0 NM7_GS_0 NM8_GS_0 NM9_GS_0
##    <dbl> <dbl>     <dbl>    <dbl>    <dbl>    <dbl>    <dbl>    <dbl>    <dbl>
##  1  85.0   123   7722094 10229284  4332024  5469528  8399260  2175857  1929214
##  2  85.0   288   4407084  3951785  3117932  3267173  4019103  3336862  3128299
##  3  85.0   293   2607157  3002005  3155868  1907645  1002345   825507  2679529
##  4  85.0    25  64373076 39894574 38858050 35446680 35724755 34192423 33235053
##  5  85.0    95   2999487  2543380  3104800  1624592  2369531  4524972  2823455
##  6  85.4   236   4240866  4900397  4051104  3749169  2528974  2431985  4520111
##  7  85.7   217   4761129  3545481  3036484  1748788  3907803  7352392  3096899
##  8  86.0   292   2021331  1824622   749073  2619466  1898965  4090192  2412457
##  9  86.0    91   2990851  3362815  2704893  2571083  3062804   830218  2360478
## 10  86.2   294   1042016   485633   598734   560341   675774  1781520   705715
## # ℹ 4,205 more rows
## # ℹ 7 more variables: TM11_GS_0 <dbl>, TM4_GS_0 <dbl>, TM5_GS_0 <dbl>,
## #   TM6_GS_0 <dbl>, TM7_GS_0 <dbl>, TM8_GS_0 <dbl>, TM9_GS_0 <dbl>
…
# Convert all intensity values to log2
hilicpos_MSMICA_featuretable_clean_t[, -c(1:6)] = hilicpos_MSMICA_featuretable_clean_t[, -c(1:6)] %>%
    mutate_all(~log2(.))
c18neg_MSMICA_featuretable_clean_t[, -c(1:6)] = c18neg_MSMICA_featuretable_clean_t[, -c(1:6)] %>%
    mutate_all(~log2(.))

# check the data ready for MSMICA targeted metabolomics analysis
print(hilicpos_MSMICA_featuretable_clean_t)

## # A tibble: 42 × 2,929
##    sample_type Group ParticipantID Temperature Time  Triplicate
##    <chr>       <chr> <chr>         <chr>       <chr> <chr>     
##  1 normal      NM    5             GS          0     1         
##  2 normal      NM    5             GS          0     3         
##  3 normal      NM    5             GS          0     5         
##  4 cancer      TM    5             GS          0     1         
##  5 cancer      TM    5             GS          0     3         
##  6 cancer      TM    5             GS          0     5         
##  7 normal      NM    11            GS          0     1         
##  8 normal      NM    11            GS          0     3         
##  9 normal      NM    11            GS          0     5         
## 10 cancer      TM    11            GS          0     1         
## # ℹ 32 more rows
## # ℹ 2,923 more variables:
## #   `((2-Amino-3-((2-amino-3-((carboxymethyl)amino)-3-oxopropyl)dithio)propanoyl)amino)acetic acid` <dbl>,
## #   `(+)-3-Methoxymorphinan` <dbl>, `(+)-Bornyl-diphosphate` <dbl>,
## #   `(+)-Calycanthidine` <dbl>, `(+)-Chebulic acid` <dbl>,
## #   `(+)-Dukunolide D` <dbl>, `(+)-Luguine` <dbl>,
## #   `(+-)-3-Methyladipic acid` <dbl>, `(+-)-Asarinol B` <dbl>, …

print(c18neg_MSMICA_featuretable_clean_t)

## # A tibble: 42 × 2,445
##    sample_type Group ParticipantID Temperature Time  Triplicate
##    <chr>       <chr> <chr>         <chr>       <chr> <chr>     
##  1 normal      NM    5             GS          0     2         
##  2 normal      NM    5             GS          0     4         
##  3 normal      NM    5             GS          0     6         
##  4 cancer      TM    5             GS          0     2         
##  5 cancer      TM    5             GS          0     4         
##  6 cancer      TM    5             GS          0     6         
##  7 normal      NM    11            GS          0     2         
##  8 normal      NM    11            GS          0     4         
##  9 normal      NM    11            GS          0     6         
## 10 cancer      TM    11            GS          0     2         
## # ℹ 32 more rows
## # ℹ 2,439 more variables:
## #   `(+)-(3S,4R)-3,4-dihydroxy-3,4-dihydrofluorene` <dbl>,
## #   `(+)-8'-Hydroxyabscisic acid` <dbl>, `(+)-Calycanthidine` <dbl>,
## #   `(+)-Eudesmin` <dbl>, `(+)-Plicamine` <dbl>, `(+)-Prosopinine` <dbl>,
## #   `(+)-Soyacerebroside I` <dbl>, `(+-)-3-Methyladipic acid` <dbl>,
## #   `(-)-2-Aminobutyric acid` <dbl>, `(-)-trans-Carveol glucoside` <dbl>, …
…
limma_outcome_c18neg = limma_outcome_c18neg %>%
    select(Name, HMDB_ID, KEGG_ID, Mono_mass, Adduct, mz, time, t_statistic, p, p.fdr, Cancer_log2FC) %>%
    arrange(p)

# select only the significant metabolites
limma_outcome_hilicpos_sig = limma_outcome_hilicpos %>%
    filter(p < 0.05)
limma_outcome_c18neg_sig = limma_outcome_c18neg %>%
    filter(p < 0.05)

# print the results
print(limma_outcome_hilicpos_sig, width=Inf)

## # A tibble: 476 × 11
##    Name                          HMDB_ID     KEGG_ID Mono_mass Adduct    mz
##    <chr>                         <chr>       <chr>       <dbl> <chr>  <dbl>
##  1 N-Butylacetamide              HMDB0031651 NA           115. M+H     116.
##  2 Iprovalicarb                  NA          C18866       320. M+H     321.
##  3 N-Acetyl-1-methyl-L-histidine HMDB0240340 NA           211. M+H     212.
##  4 Lactose                       HMDB0000186 C00243       342. M+K     381.
##  5 3-Methylhistamine             HMDB0001861 NA           125. M+H     126.
##  6 Avenestergenin A1             HMDB0035264 NA           637. M+H     638.
##  7 N-Acetyl-L-arginine           HMDB0004620 NA           216. M+H     217.
##  8 Beta-hydroxyfentanyl          NA          C22749       352. M+H     353.
##  9 Cheritamine                   HMDB0034872 NA           593. M+H     594.
## 10 12-Hydroxyjasmonate sulfate   NA          C21671       306. M+H     307.
##     time t_statistic           p   p.fdr Cancer_log2FC
##    <dbl>       <dbl>       <dbl>   <dbl>         <dbl>
##  1    42       -5.81 0.000000966 0.00117         -1.76
##  2    33       -7.04 0.00000118  0.00117         -3.12
##  3    81       -5.90 0.00000120  0.00117         -2.33
##  4    83       -5.61 0.00000184  0.00134         -1.24
##  5    89       -5.56 0.00000235  0.00137         -2.28
##  6    38       -5.35 0.00000488  0.00222         -2.99
##  7    67       -5.39 0.00000601  0.00222         -2.19
##  8    78       -5.23 0.00000611  0.00222         -2.46
##  9    39       -5.04 0.0000121   0.00341         -3.42
## 10    56       -5.00 0.0000134   0.00341         -2.87
## # ℹ 466 more rows
…
