• MSMICA
…
##  [9] "C22153" "C22196" "C22200" "C22201" "C22202" "C22203" "C22216" "C22223"
## [17] "C22225" "C22233" "C22237" "C22239" "C22240" "C22241" "C22242" "C22243"
## [25] "C22244" "C22249" "C22254" "C22255" "C22270" "C22271" "C22272" "C22275"
## [33] "C22276" "C22283" "C22293" "C22300" "C22301" "C22310" "C22311" "C22318"
## [41] "C22320" "C22323" "C22325" "C22327" "C22330" "C22337" "C22348" "C22350"
## [49] "C22351" "C22371" "C22375"
##   |                                                                              |======================================================================| 100% [1] "C22375" "C22379" "C22382" "C22395" "C22420" "C22421" "C22426" "C22429"
##  [9] "C22437" "C22440" "C22448" "C22449" "C22450" "C22451" "C22454" "C22456"
## [17] "C22458" "C22459" "C22462" "C22463" "C22464" "C22492" "C22494" "C22497"
## [25] "C22499" "C22502" "C22503" "C22509" "C22512" "C22526" "C22530" "C22553"
## [33] "C22556" "C22557" "C22561" "C22562" "C22568" "C22571" "C22572" "C22575"
## [41] "C22583" "C22584" "C22594" "C22595" "C22597" "C22599" "C22600" "C22606"
## [49] "C22607" "C22610" "C22611"
## [1] "Here are the identified metabolites by using the evidence of adduct correlation, isotope correlation, and adduct formation:"
## # A tibble: 1,668 × 49
##    ion_mode metabolite           KEGGID adduct    mz  time MSMICA_identification
##    <chr>    <chr>                <chr>  <chr>  <dbl> <dbl>                 <dbl>
##  1 positive S-Adenosyl-L-homocy… C00021 M+H    385.   89.9                     1
##  2 positive S-Adenosyl-L-homocy… C00021 M+Na   407.   89.5                     1
##  3 positive L-Glutamate          C00025 M-H2O… 130.   81.2                     1
##  4 positive L-Glutamate          C00025 M+H    148.   77.7                     1
##  5 positive L-Glutamate          C00025 M+2Na… 192.   76.3                     1
##  6 positive L-Alanine            C00041 M+H     90.1  70.3                     1
##  7 positive L-Alanine            C00041 M+2Na… 134.   72.1                     1
##  8 positive L-Lysine             C00047 M+H    147.  110.                      1
##  9 positive L-Aspartate          C00049 M+H    134.   83                       1
## 10 positive L-Aspartate          C00049 M+2Na… 178.   79.5                     1
## # ℹ 1,658 more rows
## # ℹ 42 more variables: NM5_GS_0_1 <dbl>, NM5_GS_0_3 <dbl>, NM5_GS_0_5 <dbl>,
## #   TM5_GS_0_1 <dbl>, TM5_GS_0_3 <dbl>, TM5_GS_0_5 <dbl>, NM11_GS_0_1 <dbl>,
## #   NM11_GS_0_3 <dbl>, NM11_GS_0_5 <dbl>, TM11_GS_0_1 <dbl>, TM11_GS_0_3 <dbl>,
## #   TM11_GS_0_5 <dbl>, NM6_GS_0_1 <dbl>, NM6_GS_0_3 <dbl>, NM6_GS_0_5 <dbl>,
## #   TM4_GS_0_1 <dbl>, TM4_GS_0_3 <dbl>, TM4_GS_0_5 <dbl>, NM4_GS_0_1 <dbl>,
## #   NM4_GS_0_3 <dbl>, NM4_GS_0_5 <dbl>, TM6_GS_0_1 <dbl>, TM6_GS_0_3 <dbl>, …
## [1] "The user does not provide any identified metabolites as the starting point for the MSMICA algorithm"
##   |                                                                              |                                                                      |   0%[1] "This is current identified metabolite as the starting points for the MSMICA algorithm:"
## # A tibble: 1,668 × 10
##    col_names    identification_type ion_mode identified_Name KEGGID Adduct mz   
##    <chr>        <chr>               <chr>    <chr>           <chr>  <chr>  <chr>
##  1 identified_… identified          positive S-Adenosyl-L-h… C00021 M+H    385.…
##  2 identified_… identified          positive S-Adenosyl-L-h… C00021 M+Na   407.…
##  3 identified_… identified          positive L-Glutamate     C00025 M-H2O… 130.…
##  4 identified_… identified          positive L-Glutamate     C00025 M+H    148.…
##  5 identified_… identified          positive L-Glutamate     C00025 M+2Na… 192.…
##  6 identified_… identified          positive L-Alanine       C00041 M+H    90.0…
##  7 identified_… identified          positive L-Alanine       C00041 M+2Na… 134.…
##  8 identified_… identified          positive L-Lysine        C00047 M+H    147.…
##  9 identified_… identified          positive L-Aspartate     C00049 M+H    134.…
## 10 identified_… identified          positive L-Aspartate     C00049 M+2Na… 178.…
## # ℹ 1,658 more rows
## # ℹ 3 more variables: time <chr>, MSMICA_identification <chr>,
## #   identification_method <chr>
## [1] "This is iteration number 1"
## [1] "There are 12933 annotated metabolite adducts left to be identified"
## [1] "There are 5668 precursor-product correlations built"
## [1] "There are 546 new metabolites identified"
## [1] "This is the new identified metabolite:"
## # A tibble: 546 × 11
##    col_names    identification_type ion_mode identified_Name KEGGID Adduct    mz
##    <chr>        <chr>               <chr>    <chr>           <chr>  <chr>  <dbl>
##  1 annotated_p… annotated           positive " "             C00003 M+2H    333.
##  2 annotated_p… annotated           positive " "             C00009 M+2Na…  143.
##  3 annotated_p… annotated           positive " "             C00010 M-H2O…  750.
##  4 annotated_p… annotated           positive " "             C00016 M+Na    808.
##  5 annotated_p… annotated           positive " "             C00018 M+K     286.
##  6 annotated_p… annotated           positive " "             C00019 M+K     437.
##  7 annotated_p… annotated           positive " "             C00020 M+H     348.
##  8 annotated_p… annotated           positive " "             C00022 M+2Na…  133.
##  9 annotated_p… annotated           positive " "             C00024 M-H2O…  792.
## 10 annotated_p… annotated           positive " "             C00031 M+Na    203.
## # ℹ 536 more rows
## # ℹ 4 more variables: time <dbl>, correlation <dbl>,
## #   MSMICA_identification <dbl>, identification_method <chr>
## [1] "This is iteration number 2"
##   |                                                                              |========                                                              |  11%[1] "There are 11541 annotated metabolite adducts left to be identified"
## [1] "There are 4248 precursor-product correlations built"
## [1] "There are 481 new metabolites identified"
## [1] "This is the new identified metabolite:"
## # A tibble: 481 × 11
##    col_names    identification_type ion_mode identified_Name KEGGID Adduct    mz
##    <chr>        <chr>               <chr>    <chr>           <chr>  <chr>  <dbl>
##  1 annotated_p… annotated           positive " "             C00081 M-H2O… 491. 
##  2 annotated_p… annotated           positive " "             C00096 M+H    606. 
##  3 annotated_p… annotated           positive " "             C00105 M-H2O… 307. 
##  4 annotated_p… annotated           positive " "             C00106 M-H2O…  95.0
##  5 annotated_p… annotated           positive " "             C00112 M+2Na… 448. 
##  6 annotated_p… annotated           positive " "             C00136 M+2H   420. 
##  7 annotated_p… annotated           positive " "             C00158 M+Na   215. 
##  8 annotated_p… annotated           positive " "             C00180 M+2Na… 167. 
##  9 annotated_p… annotated           positive " "             C00186 M+2Na… 135. 
## 10 annotated_p… annotated           positive " "             C00187 M-H2O… 369. 
## # ℹ 471 more rows
## # ℹ 4 more variables: time <dbl>, correlation <dbl>,
## #   MSMICA_identification <dbl>, identification_method <chr>
## [1] "This is iteration number 3"
##   |                                                                              |=============                                                         |  19%[1] "There are 10464 annotated metabolite adducts left to be identified"
## [1] "There are 2937 precursor-product correlations built"
## [1] "There are 159 new metabolites identified"
## [1] "This is the new identified metabolite:"
## # A tibble: 159 × 11
##    col_names    identification_type ion_mode identified_Name KEGGID Adduct    mz
##    <chr>        <chr>               <chr>    <chr>           <chr>  <chr>  <dbl>
##  1 annotated_p… annotated           positive " "             C00059 M+2Na… 143. 
##  2 annotated_p… annotated           positive " "             C00191 M+2Na… 239. 
##  3 annotated_p… annotated           positive " "             C00333 M+2Na… 239. 
##  4 annotated_p… annotated           positive " "             C00400 M+2Na… 201. 
##  5 annotated_p… annotated           positive " "             C00482 M+Na   247. 
##  6 annotated_p… annotated           positive " "             C00553 M+2Na… 201. 
##  7 annotated_p… annotated           positive " "             C00568 M+K    176. 
##  8 annotated_p… annotated           positive " "             C00577 M+2Na… 135. 
##  9 annotated_p… annotated           positive " "             C00596 M-H2O…  97.0
## 10 annotated_p… annotated           positive " "             C00599 M+H    385. 
## # ℹ 149 more rows
## # ℹ 4 more variables: time <dbl>, correlation <dbl>,
## #   MSMICA_identification <dbl>, identification_method <chr>
## [1] "This is iteration number 4"
##   |                                                                              |===============                                                       |  22%[1] "There are 10103 annotated metabolite adducts left to be identified"
## [1] "There are 2596 precursor-product correlations built"
## [1] "There are 52 new metabolites identified"
## [1] "This is the new identified metabolite:"
## # A tibble: 52 × 11
##    col_names    identification_type ion_mode identified_Name KEGGID Adduct    mz
##    <chr>        <chr>               <chr>    <chr>           <chr>  <chr>  <dbl>
##  1 annotated_p… annotated           positive " "             C00048 M+2Na…  119.
##  2 annotated_p… annotated           positive " "             C00170 M+H     298.
##  3 annotated_p… annotated           positive " "             C00770 M+2Na…  241.
##  4 annotated_p… annotated           positive " "             C00800 M+2Na…  241.
##  5 annotated_p… annotated           positive " "             C00900 M+K     171.
##  6 annotated_p… annotated           positive " "             C01108 M-H2O…  109.
##  7 annotated_p… annotated           positive " "             C01189 M-H2O…  369.
##  8 annotated_p… annotated           positive " "             C01710 M+H     135.
##  9 annotated_p… annotated           positive " "             C02273 M+2Na…  415.
## 10 annotated_p… annotated           positive " "             C02703 M+Na    208.
## # ℹ 42 more rows
## # ℹ 4 more variables: time <dbl>, correlation <dbl>,
## #   MSMICA_identification <dbl>, identification_method <chr>
## [1] "This is iteration number 5"
##   |                                                                              |================                                                      |  23%[1] "There are 9982 annotated metabolite adducts left to be identified"
## [1] "There are 2458 precursor-product correlations built"
## [1] "There are 13 new metabolites identified"
## [1] "This is the new identified metabolite:"
…
## Rows: 1669 Columns: 1

## ── Column specification ────────────────────────────────────────────────────────
## Delimiter: "\t"
## chr (1): ion_mode,identification_type,KEGGID,Identified_Name,Exact_mass,isot...
## 
## ℹ Use `spec()` to retrieve the full column specification for this data.
## ℹ Specify the column types or set `show_col_types = FALSE` to quiet this message.

# print the data
print(MSMICA_test_hilicpos_MSMICA_identified_metabolites, width=Inf)

## # A tibble: 1,669 × 1
##    ion_mode,identification_type,KEGGID,Identified_Name,Exact_mass,isotopic_mas…¹
##    <chr>                                                                        
##  1 positive,identified,C00003,NAD+,663.1091,665.1203024,M+2H,332.5619,289.1,0.4…
##  2 positive,identified,C00009,Orthophosphate,97.9769,99.98114057,M+2Na-H,142.94…
##  3 positive,identified,C00010,CoA,767.1152,768.1185651,M-H2O+H,750.1146,95.8,0.…
##  4 positive,identified,C00016,FAD,785.1571,786.1604902,M+Na,808.1464,294.4,0.38…
##  5 positive,identified,C00018,Pyridoxal phosphate,247.0246,248.0279289,M+K,285.…
##  6 positive,identified,C00019,S-Adenosyl-L-methionine,398.1372,399.1405938,M+K,…
##  7 positive,identified,C00020,AMP,347.0631,348.0664396,M+H,348.0703,284.1,0.464…
##  8 positive,identified,C00021,S-Adenosyl-L-homocysteine,384.1216,385.1249438,M+…
##  9 positive,identified,C00022,Pyruvate,88.016,89.01939882,M+2Na-H,132.9873,20.5…
## 10 positive,identified,C00024,Acetyl-CoA,809.1258,810.1291298,M-H2O+H,792.1256,…
## # ℹ 1,659 more rows
## # ℹ abbreviated name: ¹​`ion_mode,identification_type,KEGGID,Identified_Name,Exact_mass,isotopic_mass,Adduct,mz,time,correlation,MSMICA_identification,identification_method`
…
